# BALNLSModels

Julia repository of BAL problems

## Examples

```julia
julia> using BALNLSModels
```

if you don't know the problem names you can call problems_df() that will return a dataframe of all the problems, thair group and some other characteristics.

```julia
julia> df = problems_df()
74×5 DataFrame
 Row │ name                     group      nequ      nvar     nnzj      
     │ String                   String     Int64     Int64    Int64     
─────┼──────────────────────────────────────────────────────────────────
   1 │ problem-16-22106-pre     dubrovnik    167436    66462    2009232
  ⋮  │            ⋮                 ⋮         ⋮         ⋮         ⋮
  74 │ problem-1778-993923-pre  venice     10003892  2997771  120046704
                                                         72 rows omitted
```

When you get this dataframe you can sort through it to get the problem that you want. For example, if you want the problem with the smallest jacobian, you can do this :

```julia
julia> sort!(df, [:nequ, :nvar])
74×5 DataFrame
 Row │ name                     group      nequ      nvar     nnzj      
     │ String                   String     Int64     Int64    Int64     
─────┼──────────────────────────────────────────────────────────────────
   1 │ problem-49-7776-pre      ladybug       63686    23769     764232
  ⋮  │            ⋮                 ⋮         ⋮         ⋮         ⋮
  74 │ problem-1778-993923-pre  venice     10003892  2997771  120046704
                                                         72 rows omitted
```
…
