# [BundleAdjustmentProblems documentation](@id Home)

Julia repository of [bundle adjustment](https://en.wikipedia.org/wiki/Bundle_adjustment) problems from the [Bundle Adjustment in the Large](http://grail.cs.washington.edu/projects/bal/) repository.

## Examples

```julia
julia> using BundleAdjustmentProblems
```

`problems_df()` returns a DataFrame of all the problems, their group and other features.

```julia
julia> df = problems_df()
74×5 DataFrame
 Row │ name                     group      nequ      nvar     nnzj      
     │ String                   String     Int64     Int64    Int64     
─────┼──────────────────────────────────────────────────────────────────
   1 │ problem-16-22106-pre     dubrovnik    167436    66462    2009232
  ⋮  │            ⋮                 ⋮         ⋮         ⋮         ⋮
  74 │ problem-1778-993923-pre  venice     10003892  2997771  120046704
                                                         72 rows omitted
```
…
