Introduction · BundleAdjustmentModels.jl
…
Edit on GitHub
BundleAdjustmentModels documentation
Julia repository of bundle adjustment problems from the Bundle Adjustment in the Large repository.
Examples

julia> using BundleAdjustmentModels
problems_df() returns a DataFrame of all the problems, their group and other features.

julia> df = problems_df()
74×5 DataFrame
 Row │ name                     group      nequ      nvar     nnzj      
     │ String                   String     Int64     Int64    Int64     
─────┼──────────────────────────────────────────────────────────────────
   1 │ problem-16-22106-pre     dubrovnik    167436    66462    2009232
  ⋮  │            ⋮                 ⋮         ⋮         ⋮         ⋮
  74 │ problem-1778-993923-pre  venice     10003892  2997771  120046704
                                                         72 rows omitted
…
